jina_ceiling_height_analysis
…
##BIG BIAS in observations for buildings…

birds %>% 
  group_by(building) %>% 
  count() %>% 
  arrange(desc(n))

## # A tibble: 27 × 2
## # Groups:   building [27]
##    building     n
##    <chr>    <int>
##  1 g          483
##  2 i          482
##  3 h          477
##  4 k          477
##  5 j          476
##  6 f          429
##  7 c          391
##  8 e          387
##  9 d          386
## 10 b          380
## # ℹ 17 more rows
…
